Metill - Ársreikningar sveitarfélaga
…
efnahagur

# A tibble: 26,514 × 6
      ar sveitarfelag    hluti        tegund3 tegund2                      total
   <dbl> <chr>           <chr>        <chr>   <chr>                        <dbl>
 1  2021 Reykjavíkurborg A_hluti      <NA>    Varanlegir rekstrarfjármun… 1.76e8
 2  2021 Reykjavíkurborg A_hluti      <NA>    Áhættufjármunir og langtím… 2.37e7
 3  2021 Reykjavíkurborg A_hluti      <NA>    Skammtímakröfur á eigin fy… 3.40e5
 4  2021 Reykjavíkurborg A_hluti      <NA>    Aðrir veltufjármunir        1.53e7
 5  2021 Reykjavíkurborg A_hluti      <NA>    Veltufjármunir              3.65e7
 6  2021 Reykjavíkurborg A_hluti      <NA>    Eigið fé                    9.19e7
 7  2021 Reykjavíkurborg A_hluti      <NA>    Skuldbindingar              3.44e7
 8  2021 Reykjavíkurborg A_hluti      <NA>    Langtímaskuldir             8.51e7
 9  2021 Reykjavíkurborg A_hluti      <NA>    Skammtímaskuldir            2.51e7
10  2021 Reykjavíkurborg A_og_B_hluti <NA>    Varanlegir rekstrarfjármun… 6.87e8
# ℹ 26,504 more rows
…
