Fjármál sveitarfélaga
…
                ársreikningar

    Höfundur

    Stofnun

      Brynjólfur Gauti Guðrúnar Jónsson 

              Tölfræði, Raunvísindadeild Háskóla Íslands

      Síðast uppfært

        September 27, 2022

# A tibble: 160 × 58
   sveitar…¹    ar hluti heild…²  eignir  tekjur skatt…³ framl…⁴   gjold afskr…⁵
   <chr>     <dbl> <chr>   <dbl>   <dbl>   <dbl>   <dbl>   <dbl>   <dbl>   <dbl>
 1 Garðabær   2002 A-hl… 3.45e 9 7.08e 9 3.07e 9 2.59e 9  1.60e8 2.88e 9  1.63e8
 2 Garðabær   2002 A og… 3.52e 9 7.06e 9 3.16e 9 2.59e 9  1.60e8 2.99e 9  2.19e8
 3 Hafnarfj…  2002 A-hl… 1.03e10 1.17e10 5.69e 9 4.76e 9  2.49e8 5.94e 9  2.75e8
 4 Hafnarfj…  2002 A og… 1.37e10 1.77e10 6.32e 9 4.76e 9  2.49e8 6.40e 9  4.20e8
 5 Kópavogs…  2002 A-hl… 1.07e10 1.69e10 7.03e 9 5.89e 9  7.73e7 6.68e 9  2.79e8
 6 Kópavogs…  2002 A og… 1.30e10 1.94e10 7.67e 9 5.89e 9  7.73e7 7.23e 9  5.94e8
 7 Reykjaví…  2002 A-hl… 3.85e10 8.05e10 3.23e10 2.68e10  4.49e8 3.63e10  1.75e9
 8 Reykjaví…  2002 A og… 7.83e10 1.68e11 4.86e10 2.67e10  4.49e8 5.19e10  6.55e9
 9 Garðabær   2003 A-hl… 4.11e 9 7.65e 9 3.24e 9 2.74e 9  1.17e8 3.14e 9  1.77e8
10 Garðabær   2003 A og… 4.31e 9 7.69e 9 3.41e 9 2.74e 9  1.17e8 3.27e 9  2.34e8
# … with 150 more rows, 48 more variables: fjarmagnslidir <dbl>,
#   oreglulegir_lidir <dbl>, rekstrarnidurstada <dbl>,
#   breyting_lifeyrisskuldbindinga <dbl>, afborganir_langtimalana <dbl>,
#   adrar_fjarmognunarhreyfingar <dbl>, eigid_fe <dbl>, veltufjarmunir <dbl>,
#   skammtimakrofur_eigin_fyrirtaeki <dbl>, handbaert_fe <dbl>,
#   skammtimaskuldir <dbl>, fjarfestingarhreyfingar <dbl>,
#   nyjar_langtimaskuldir <dbl>, launagjold <dbl>, veltufe <dbl>, …
